23700000         20542296200015298988               0339600000000039519 VERT CAPITAL                  BANCO BRADESCO S.A                      12411202210280700000108901600                                                                     
23700021C2001045 20542296200015298988               0339600000000039519 TRANSFER SAME BANK            1                                                                                                             06083160SP01                
2370001300001A00000023703049 0000007067291 JOTAGE SALES SAME BANK        123456              24112022BRL000000108000011000000000108011                    24112022000000000108011                                        0      CC   0          
2370001300002B   291038859000145                                                                                               05112020000000000108011000000000000000000000000000000000000000000000000000000000000                              
23700025         000004000000000000108011000000000000000000                                                                                                                                                                                     
23700011C2003045 20542296200015298988               0339600000000039519 PATRIMONIO DE TESTE           1                                                                                                             06083160SP01                
2370001300001A0000183410234330000000234222 JOTAGE SALES                  1212412             24112022BRL000000108000011000000000108011                    24112022000000000108011                                          00010CC   0          
2370001300001B   291038859000145                                                                                               05112020000000000108011000000000000000000000000000000000000000000000000000000000000                              
2370001300002A0007003410234330000000234222 JOTAGE SALES DOC              87676               24112022BRL000000099700011000000000099711                    24112022000000000099711                                        01     CC   0          
2370001300001B   291038859000145                                                                                               05112020000000000099711000000000000000000000000000000000000000000000000000000000000                              
2370001300003J0  93381286002668558057000063305282520000108011JOTAGE SALES BOLETO           0511202000000000010801100000000000000000000000000000024112022000000000108011000000108000011345345                                  09                
23700011000020 01121000000000123456JOTAGE SALES BOLETO                     1000000000123456JOTAGE SALES BOLETO                     1000000000123456JOTAGE SALES BOLETO                                                                          
23700015         000005000000000000108011000000000000000000                                                                                                                                                                                     
23799999         000002000013000000                                                                                                                                                                                                             
